…
## Long format tables

The `tac_long` and `dcd_long` data frames are long-format transformed versions of the wide-formatted `tac` and `dcd` data frames with additional description columns added to clarify the coded column names.

### tac_long

The `tac` data frame provided in the raw data contains one row per case and one column per TAC assay result. There are 325 columns with names such as `bld_abau_1`, `bld_adev_1`, etc., indicating the specimen type and assay.

```r
d$tac                                                                           
#> # A tibble: 1,473 x 325
#>    champs_deid bld_abau_1 bld_adev_1 bld_bart_1 bld_bruc_1 bld_bups_1 bld_caal_1
#>    <chr>       <chr>      <chr>      <chr>      <chr>      <chr>      <chr>     
#>  1 AB032461-9… Negative   Negative   Negative   Negative   Negative   Negative  
#>  2 46B7C6E7-2… Negative   Negative   Negative   Negative   Negative   Negative  
#>  3 3791BBA8-4… Negative   Negative   Negative   Negative   Negative   Positive  
#> # … with 1,470 more rows, and 318 more variables: bld_cchf_1 <chr>,
```

An alternate long-format representation of this data can be more convenient for various analyses. In the long format, we have one row for every case and TAC assay combination and columns providing information about the TAC assay, namely its `specimen_type`, `target`, `pathogen`, and the `result`.

```r
d$tac_long                                                                      
#> # A tibble: 477,252 x 6
#>    champs_deid           name    result  specimen_type target pathogen              
#>    <chr>                 <chr>   <chr>   <chr>         <chr>  <chr>                 
#>  1 AB032461-9D11-4391-A… bld_ab… Negati… Whole blood   ABAU_1 Acinetobacter baumann…
#>  2 AB032461-9D11-4391-A… bld_ad… Negati… Whole blood   ADEV_1 Adenovirus            
#>  3 AB032461-9D11-4391-A… bld_ba… Negati… Whole blood   BART_1 Bartonella spp.       
#> # … with 477,249 more rows
```

Note that `specimen_type` is derived from the text preceding the first "_" in the original variable names. The `pathogen` value is found in a lookup table that is available in the dataset description PDF file that comes with the data download, and which is made available in this R package as a dataset `tac_table`.

```r
tac_table
#> # A tibble: 128 x 3
#>    code   assay                   gene_target     
#>    <chr>  <chr>                   <chr>           
#>  1 ABAU_1 Acinetobacter baumannii OXA-51          
#>  2 ADEV_1 Adenovirus              hexon           
#>  3 AD4X_1 Adenovirus 40/41        fiber protein   
#> # … with 125 more rows
```

The `pathogen` variable is often much more useful for searching for specific TAC results, as you can search by a pathogen name (e.g. "Acinetobacter baumannii") rather than parsing out the TAC assay code (e.g. "ABAU_1").

### dcd_long

Similar to the TAC dataset, the DeCoDe dataset in its raw form has one row per case and many columns.

```r
d$dcd
#> # A tibble: 1,476 x 66
#>    champs_deid immediate_cod ic_champs_group… underlying_cause uc_champs_group…
#>    <chr>       <chr>         <chr>            <chr>            <chr>           
#>  1 B6F81D28-C… B24           Maternal HIV     P22.0            Neonatal preter…
#>  2 56550401-2… P07.1         Neonatal preter… P36.1            Neonatal sepsis 
#>  3 BA74FEEB-7… P20           Perinatal asphy… P36.8            Neonatal sepsis 
#> # … with 1,473 more rows, and 61 more variables:
#> #   main_maternal_disease_condition <chr>, morbid_condition_01 <chr>,
#> #   morbid_cond_01_champs_group_desc <chr>, morbid_condition_02 <chr>,
#> #   morbid_cond_02_champs_group_desc <chr>, morbid_condition_03 <chr>,
#> #   morbid_cond_03_champs_group_desc <chr>, morbid_condition_04 <chr>,
#> #   morbid_cond_04_champs_group_desc <chr>, morbid_condition_05 <chr>,
#> #   morbid_cond_05_champs_group_desc <chr>, morbid_condition_06 <lgl>,
#> #   morbid_cond_06_champs_group_desc <lgl>, morbid_condition_07 <lgl>,
#> #   morbid_cond_07_champs_group_desc <lgl>, morbid_condition_08 <lgl>,
…
For each case, information about the causes of death determined by the DeCoDe panel can be found. These are either available as CHAMPS group descriptions (ending with `_champs_group_desc`) and etiologies (ending with `_etiol`) if applicable. Immediate and underlying causes of death, along with morbid conditions or other significant conditions, are classified as ICD10 codes, CHAMPS group descriptions, and with etiologies depending on the causes. 

Similar to what was done with the TAC long table, a long version of the DeCoDe table can be convenient for many analyses. We pivoted the data to long format such that there is one row per each etiology (1-3) and "type" of variable (immediate, underlying, morbid_condition_0*), with the corresponding CHAMPS group descriptions being repeated for each type.

Let's take a glimpse at the data for one case in long form:

```r
dplyr::filter(d$dcd_long, champs_deid == d$dcd_long$champs_deid[1500]) 
# A tibble: 30 x 5
   champs_deid        champs_group_desc       type     etiol          etiol_num
   <chr>              <chr>                   <chr>    <chr>              <int>
 1 FF205E2D-7F81-4A…  Neonatal sepsis         immedi…  Escherichia c…         1
 2 FF205E2D-7F81-4A…  Neonatal sepsis         immedi…  NA                     2
 3 FF205E2D-7F81-4A…  Neonatal sepsis         immedi…  NA                     3
 4 FF205E2D-7F81-4A…  Lower respiratory inf…  underl…  Escherichia c…         1
 5 FF205E2D-7F81-4A…  Lower respiratory inf…  underl…  NA                     2
 6 FF205E2D-7F81-4A…  Lower respiratory inf…  underl…  NA                     3
 7 FF205E2D-7F81-4A…  Meningitis/Encephalit…  morbid…  Escherichia c…         1
 8 FF205E2D-7F81-4A…  Meningitis/Encephalit…  morbid…  NA                     2
 9 FF205E2D-7F81-4A…  Meningitis/Encephalit…  morbid…  NA                     3
10 FF205E2D-7F81-4A…  NA                      morbid…  NA                     1
# … with 20 more rows
```
…
