Deep dive into a calc function • champs
…
To begin our calculation, we load the package and the de-identified data, which here we have downloaded to a location ~/Downloads/CHAMPS_de_identified_data.

library(champs)
library(dplyr)
library(stringr)
d <- load_data("~/Downloads/CHAMPS_de_identified_data")

We want to specify the condition and pathogen associated with Group B Streptococcus. Note that conditions and pathogens can overlap but may not always be expressed in the same way. You can call valid_conditions(d) to get a list of all conditions for which data exists (all unique values of etiologies or CHAMPS group descriptions), and you can call valid_pathogens() for a list of all valid pathogen values as detected by TAC.

Searching the results of these valid_ functions, we see that the condition we are looking for is not coded as “Group B Streptococcus”, but as “Streptococcus agalactiae”. The pathogen we are looking for, on the other hand, is simply “Group B Streptococcus”.

To start, let’s look at the TAC results to find cases where there is a positive result for “Group B Streptococcus”. We can either use the tac_long table or the tac table. Recall that the tac table looks like this:

d$tac
#> # A tibble: 1,473 x 325
#>    champs_deid bld_abau_1 bld_adev_1 bld_bart_1 bld_bruc_1 bld_bups_1 bld_caal_1
#>    <chr>       <chr>      <chr>      <chr>      <chr>      <chr>      <chr>     
#>  1 AB032461-9… Negative   Negative   Negative   Negative   Negative   Negative  
#>  2 46B7C6E7-2… Negative   Negative   Negative   Negative   Negative   Negative  
#>  3 3791BBA8-4… Negative   Negative   Negative   Negative   Negative   Positive  
#>  4 52662D06-B… <NA>       Negative   <NA>       <NA>       <NA>       <NA>      
#>  5 7C1C58CB-3… <NA>       Negative   <NA>       <NA>       <NA>       <NA>      
#>  6 3D6C22BB-D… Negative   Negative   Negative   Negative   Negative   Negative  
#>  7 05B7F6AD-7… Negative   Negative   Negative   Negative   Negative   Negative  
#>  8 4A520B0F-4… <NA>       Negative   <NA>       <NA>       <NA>       <NA>      
#>  9 C8F59F60-1… Negative   Negative   Negative   Negative   Negative   Negative  
#> 10 D2406FD8-D… <NA>       Negative   <NA>       <NA>       <NA>       <NA>      
#> # … with 1,463 more rows, and 318 more variables: bld_cchf_1 <chr>,
#> #   bld_chic_1 <chr>, bld_cobu_1 <chr>, bld_crng_1 <chr>, bld_cymv_1 <chr>,
#> #   bld_denv_1 <chr>, bld_ecsh_1 <chr>, bld_enfc_1 <chr>, bld_enfm_1 <chr>,
#> #   bld_entv_4 <chr>, bld_gast_2 <chr>, bld_gbst_1 <chr>, bld_hepe_1 <chr>,
#> #   bld_hflu_1 <chr>, bld_hiat_1 <chr>, bld_hitb_2 <chr>, bld_hpev_1 <chr>,
#> #   bld_hsv1_1 <chr>, bld_hsv2_1 <chr>, bld_jenv_1 <chr>, bld_klpn_1 <chr>,
#> #   bld_lass_1 <chr>, bld_lava_1 <chr>, bld_lavb_1 <chr>, bld_lavp_1 <chr>,
#> #   bld_lept_1 <chr>, bld_limo_1 <chr>, bld_mevs_1 <chr>, bld_moca_1 <chr>,
#> #   bld_mump_1 <chr>, bld_mytb_1 <chr>, bld_nego_1 <chr>, bld_nipv_1 <chr>,
…
While the tac_long table looks like this:

d$tac_long
#> # A tibble: 477,252 x 6
#>    champs_deid          name    result specimen_type target pathogen            
#>    <chr>                <chr>   <chr>  <chr>         <chr>  <chr>               
#>  1 AB032461-9D11-4391-… bld_ab… Negat… Whole blood   ABAU_1 Acinetobacter bauma…
#>  2 AB032461-9D11-4391-… bld_ad… Negat… Whole blood   ADEV_1 Adenovirus          
#>  3 AB032461-9D11-4391-… bld_ba… Negat… Whole blood   BART_1 Bartonella spp.     
#>  4 AB032461-9D11-4391-… bld_br… Negat… Whole blood   BRUC_1 Brucellaspp.        
#>  5 AB032461-9D11-4391-… bld_bu… Negat… Whole blood   BUPS_1 Burkholderia pseudo…
#>  6 AB032461-9D11-4391-… bld_ca… Negat… Whole blood   CAAL_1 Candida albicans    
#>  7 AB032461-9D11-4391-… bld_cc… Negat… Whole blood   CCHF_1 Crimean-Congo Hemor…
#>  8 AB032461-9D11-4391-… bld_ch… Negat… Whole blood   CHIC_1 Chikungunya virus   
#>  9 AB032461-9D11-4391-… bld_co… Negat… Whole blood   COBU_1 Coxiella burnettii  
#> 10 AB032461-9D11-4391-… bld_cr… Negat… Whole blood   CRNG_1 Cryptococcus neofor…
#> # … with 477,242 more rows
…
length(ids_tac)
#> [1] 207

We see that there are 207 unique cases that have a positive result for Group B Streptococcus, or died with this pathogen.

Now let’s do a similar operation with the DeCoDe results. Similar to TAC, we will use the long format, dcd_long to find cases.

Recall that dcd_long looks like this:

d$dcd_long
#> # A tibble: 44,280 x 5
#>    champs_deid          champs_group_desc      type     etiol          etiol_num
#>    <chr>                <chr>                  <chr>    <chr>              <int>
#>  1 B6F81D28-CE23-4034-… Maternal HIV           immedia… Human Immunod…         1
#>  2 B6F81D28-CE23-4034-… Maternal HIV           immedia… <NA>                   2
#>  3 B6F81D28-CE23-4034-… Maternal HIV           immedia… <NA>                   3
#>  4 56550401-228F-457C-… Neonatal preterm birt… immedia… <NA>                   1
#>  5 56550401-228F-457C-… Neonatal preterm birt… immedia… <NA>                   2
#>  6 56550401-228F-457C-… Neonatal preterm birt… immedia… <NA>                   3
#>  7 BA74FEEB-7680-4ABA-… Perinatal asphyxia/hy… immedia… <NA>                   1
#>  8 BA74FEEB-7680-4ABA-… Perinatal asphyxia/hy… immedia… <NA>                   2
#>  9 BA74FEEB-7680-4ABA-… Perinatal asphyxia/hy… immedia… <NA>                   3
#> 10 F773A228-9212-4670-… Neonatal preterm birt… immedia… <NA>                   1
#> # … with 44,270 more rows
…
