Computing summaries • champs
…
#> [1] "Group B Streptococcus"
#> 
#> $icds
#> [1] "P36.0" "A40.1" "P23.3" "G00.2"
#> 
#> $specimen_types
#> [1] "Nasopharyngeal and Oropharyngeal swab" "Cerebrospinal fluid sample"           
#> [3] "Tissue specimen from lung"             "Whole blood"                          
#> [5] "Rectal swab"                           "Plasma or spun blood specimen"        
#> 
#> $sites
#> [1] "Bangladesh"   "Kenya"        "Mali"         "Mozambique"   "South Africa"
#> 
#> $df
#> # A tibble: 23 x 2
#>    value                        n
#>    <chr>                    <int>
#>  1 Klebsiella pneumoniae       33
#>  2 Acinetobacter baumannii     22
#>  3 Streptococcus pneumoniae    14
#>  4 Cytomegalovirus (CMV)        9
#>  5 Plasmodium falciparum        7
#>  6 Haemophilus influenzae       6
#>  7 Pneumocystis jirovecii       6
#>  8 Staphylococcus aureus        6
#>  9 Candida spp                  3
#> 10 Enterococcus faecalis        3
#> # … with 13 more rows
…
calc_top_dcd_pathogens_by_acq(d,
  condition = "Lower respiratory infections",
  age_groups = c(
    "Infant (28 days to less than 12 months)",
    "Child (12 months to less than 60 Months)")
)
#> $version
#> # A tibble: 1 x 3
#>   dataset_name       dataset_version dataset_release_date
#>   <chr>                        <dbl> <date>              
#> 1 CHAMPS Level2 Data             4.1 2020-08-01          
#> 
#> $table
#> # A tibble: 27 x 4
#> # Groups:   etiol [27]
#>    etiol                             Community Facility Total
#>    <chr>                                 <int>    <int> <int>
#>  1 Klebsiella pneumoniae                    37       41    78
#>  2 Streptococcus pneumoniae                 61       10    71
#>  3 Cytomegalovirus (CMV)                    14       20    34
#>  4 Haemophilus influenzae                   18        7    25
#>  5 Staphylococcus aureus                    13       11    24
#>  6 Respiratory syncytial virus (RSV)         5       14    19
#>  7 Pneumocystis jirovecii                   10        7    17
#>  8 Adenovirus                                2       12    14
#>  9 Pseudomonas aeruginosa                    3        8    11
#> 10 Escherichia coli                          9        1    10
#> # … with 17 more rows
…
    "Infant (28 days to less than 12 months)",
    "Child (12 months to less than 60 Months)"),
  specimen_types = c(
    "Nasopharyngeal and Oropharyngeal swab",
    "Tissue specimen from lung"),
  specimen_abbrv = c("# NP+", "# Lung+")
)
#> $version
#> # A tibble: 1 x 3
#>   dataset_name       dataset_version dataset_release_date
#>   <chr>                        <dbl> <date>              
#> 1 CHAMPS Level2 Data             4.1 2020-08-01          
#> 
#> $table
#> # A tibble: 40 x 5
#>    pathogen            `# NP+ (n=454)` `# Lung+ (n=454)` `# in CC (n=454… `# in CC as LRI (n=2…
#>    <chr>                         <int>             <int>            <int>                 <int>
#>  1 Klebsiella pneumon…             301               193              124                    78
#>  2 Cytomegalovirus (C…             262               194               48                    34
#>  3 Streptococcus pneu…             240               151               82                    71
#>  4 Haemophilus influe…             239               142               31                    25
#>  5 Staphylococcus aur…             235                91               33                    24
#>  6 Moraxella catarrha…             208                99                3                     2
#>  7 Rhinovirus                      182                69                8                     8
#>  8 Acinetobacter baum…             127                34               32                    12
#>  9 Adenovirus                       83                33               25                    14
#> 10 Pseudomonas aerugi…              79                35               17                    11
#> # … with 30 more rows
…
calc_top_etiol_by_age(d,
  age_groups = c(
    "Death in the first 24 hours",
    "Early Neonate (24-72 hours)",
    "Early Neonate (72+hrs to 6 days)",
    "Late Neonate (7 to 27 days)")
)
#> $version
#> # A tibble: 1 x 3
#>   dataset_name       dataset_version dataset_release_date
#>   <chr>                        <dbl> <date>              
#> 1 CHAMPS Level2 Data             4.1 2020-08-01          
#> 
#> $etiol_counts
#> # A tibble: 69 x 3
#> # Groups:   age_group_subcat [4]
#>    age_group_subcat            etiol                        n
#>    <fct>                       <chr>                    <int>
#>  1 Death in the first 24 hours Candida spp                  1
#>  2 Death in the first 24 hours Chlamydia trachomatis        1
#>  3 Death in the first 24 hours Enterococcus faecalis        2
#>  4 Death in the first 24 hours Escherichia coli            11
#>  5 Death in the first 24 hours Haemophilus influenzae       2
#>  6 Death in the first 24 hours Klebsiella pneumoniae        6
#>  7 Death in the first 24 hours Listeria monocytogenes       1
#>  8 Death in the first 24 hours Streptococcus agalactiae    18
#>  9 Death in the first 24 hours Streptococcus pneumoniae     2
#> 10 Death in the first 24 hours Toxoplasma gondii            1
#> # … with 59 more rows
#> 
#> $top
#> # A tibble: 33 x 2
#>    etiol                        n
#>    <chr>                    <int>
#>  1 Acinetobacter baumannii    116
#>  2 Klebsiella pneumoniae      109
#>  3 Escherichia coli            36
#>  4 Streptococcus agalactiae    32
#>  5 Candida spp                 19
#>  6 Staphylococcus aureus       19
#>  7 Enterococcus faecalis       11
#>  8 Streptococcus pneumoniae     7
#>  9 Enterococcus faecium         6
#> 10 Listeria monocytogenes       6
#> # … with 23 more rows
…
