Tabulate top etiologies by specified age groups — calc_top_etiol_by_age • champs
…
#> $version
#> # A tibble: 1 x 3
#>   dataset_name       dataset_version dataset_release_date
#>   <chr>                        <dbl> <date>              
#> 1 CHAMPS Level2 Data             4.1 2020-08-01          
#> 
#> $etiol_counts
#> # A tibble: 38 x 3
#> # Groups:   age_group_subcat [4]
#>    age_group_subcat            etiol                        n
#>    <fct>                       <chr>                    <int>
#>  1 Death in the first 24 hours Escherichia coli             3
#>  2 Death in the first 24 hours Klebsiella pneumoniae        4
#>  3 Death in the first 24 hours Streptococcus agalactiae     5
#>  4 Death in the first 24 hours Streptococcus pneumoniae     1
#>  5 Death in the first 24 hours Toxoplasma gondii            1
#>  6 Death in the first 24 hours Ureaplasma spp.              1
#>  7 Early Neonate (24-72 hours) Acinetobacter baumannii      3
#>  8 Early Neonate (24-72 hours) Enterococcus faecium         1
#>  9 Early Neonate (24-72 hours) Enterococcus spp.            1
#> 10 Early Neonate (24-72 hours) Escherichia coli             7
#> # … with 28 more rows
…
