Tabulate TAC top pathogens detected and causal chain — calc_top_tac_pathogens_cc • champs
…
#> $version
#> # A tibble: 1 x 3
#>   dataset_name       dataset_version dataset_release_date
#>   <chr>                        <dbl> <date>              
#> 1 CHAMPS Level2 Data             4.1 2020-08-01          
#> 
#> $table
#> # A tibble: 36 x 5
#>    pathogen   `# NP+ (n=135)` `# Lung+ (n=135… `# in CC (n=135… `# in CC as LRI…
#>    <chr>                <int>            <int>            <int>            <int>
#>  1 Klebsiell…              92               57               36               19
#>  2 Cytomegal…              85               51               10                6
#>  3 Streptoco…              84               48               28               24
#>  4 Haemophil…              81               49               12                7
#>  5 Staphyloc…              73               27                8                6
#>  6 Moraxella…              71               38                1               NA
#>  7 Rhinovirus              60               22                2                2
#>  8 Adenovirus              33               10                5               NA
#>  9 Acinetoba…              31                9                3               NA
#> 10 Pseudomon…              31               12                4                2
#> # … with 26 more rows
…
